Import FantasyPros Projections — fp_projections • ffpros
…
      include_metadata
      logical - default FALSE (only return tibble), if TRUE returns list with both tibble and metadata

    See also

    https://github.com/dynastyprocess/data

https://www.fantasypros.com

    Examples

# \donttest{
fp_projections("qb")

#> # A tibble: 78 x 13
#>    fantasypros_id player_name        team  passing_att passing_cmp passing_yds
#>    <chr>          <chr>              <chr>       <dbl>       <dbl>       <dbl>
#>  1 17298          Josh Allen         BUF          615.        408.       4675.
#>  2 16413          Patrick Mahomes II KC           645.        431.       5071.
#>  3 18600          Kyler Murray       ARI          584.        386.       4103.
#>  4 17233          Lamar Jackson      BAL          457.        289.       3333.
#>  5 18635          Justin Herbert     LAC          632.        415.       4720.
#>  6 9001           Aaron Rodgers      GB           574.        388.       4450.
#>  7 15600          Dak Prescott       DAL          610.        404.       4623.
#>  8 9603           Tom Brady          TB           630.        406.       4800.
#>  9 11180          Russell Wilson     SEA          545.        362.       4095.
#> 10 16398          Deshaun Watson     HOU          522         363        4349 
#> # … with 68 more rows, and 7 more variables: passing_tds <dbl>,
#> #   passing_ints <dbl>, rushing_att <dbl>, rushing_yds <dbl>,
#> #   rushing_tds <dbl>, misc_fl <dbl>, misc_fpts <dbl>
fp_projections("wr", year=2020, week=2)

#> # A tibble: 207 x 11
#>    fantasypros_id player_name       team  rushing_att rushing_yds rushing_tds
#>    <chr>          <chr>             <chr>       <dbl>       <dbl>       <dbl>
#>  1 12123          Davante Adams     GB            0           0             0
#>  2 9867           Julio Jones       TEN           0.1         0.3           0
#>  3 11606          DeAndre Hopkins   ARI           0.1         0.5           0
#>  4 15802          Tyreek Hill       KC            0.7         5.2           0
#>  5 17258          Calvin Ridley     ATL           0.3         1.5           0
#>  6 13894          Amari Cooper      DAL           0.1         0.6           0
#>  7 12119          Mike Evans        TB            0           0.2           0
#>  8 13429          Adam Thielen      MIN           0.2         1.2           0
#>  9 12126          Allen Robinson II CHI           0.2         0.7           0
#> 10 13971          Tyler Lockett     SEA           0.4         1.8           0
#> # … with 197 more rows, and 5 more variables: receiving_rec <dbl>,
#> #   receiving_yds <dbl>, receiving_tds <dbl>, misc_fl <dbl>, misc_fpts <dbl>
…
