Import latest FantasyPros Rankings — fp_rankings • ffpros
…
      include_metadata
      logical - default FALSE (only return tibble), if TRUE returns list with both tibble and metadata

    See also

    https://github.com/dynastyprocess/data

https://www.fantasypros.com

    Examples

# \donttest{
fp_rankings(page = "dynasty-overall")

#> # A tibble: 517 x 28
#>    fantasypros_id sportradar_id  player_name pos   team  age    rank ecr   sd   
#>             <int> <chr>          <chr>       <chr> <chr> <chr> <int> <chr> <chr>
#>  1          16393 f96db0af-5e25… Christian … RB    CAR   25        1 1.04  0.20 
#>  2          17240 9811b753-347c… Saquon Bar… RB    NYG   24        2 3.17  1.13 
#>  3          16374 8960d61e-433b… Dalvin Cook RB    MIN   25        3 3.70  1.83 
#>  4          19217 925195a4-06ba… Jonathan T… RB    IND   22        4 3.96  1.92 
#>  5          16421 d9c857b2-97da… Alvin Kama… RB    NO    25        5 6.13  2.07 
#>  6          12123 e7d6ae25-bf15… Davante Ad… WR    GB    28        6 8.35  3.89 
#>  7          15802 01d8aee3-e1c4… Tyreek Hill WR    KC    27        7 8.74  2.64 
#>  8          18218 a9e580f2-1fbe… A.J. Brown  WR    TEN   23        8 9.26  3.43 
#>  9          18219 754faf0f-40f7… D.K. Metca… WR    SEA   23        9 10.30 4.40 
#> 10          19236 4131d4ee-0318… Justin Jef… WR    MIN   22       10 11.00 4.32 
#> # … with 507 more rows, and 19 more variables: best <chr>, worst <chr>,
#> #   yahoo_id <chr>, cbs_id <chr>, player_positions <chr>,
#> #   player_short_name <chr>, player_eligibility <chr>,
#> #   player_yahoo_positions <chr>, player_page_url <chr>, player_filename <chr>,
#> #   player_square_image_url <chr>, player_image_url <chr>,
#> #   player_bye_week <chr>, player_owned_avg <dbl>, player_owned_espn <dbl>,
#> #   player_owned_yahoo <int>, player_ecr_delta <int>, pos_rank <chr>,
#> #   tier <int>
fp_rankings(page = "consensus-cheatsheets", year = 2017)

#> Error in httr::modify_url(., query = ...): unused argument (year = 2017)
fp_rankings(page = "overall", sport = "nba")

#> # A tibble: 325 x 9
#>    player_name          fantasypros_id team  pos    rank   ecr    sd  best worst
#>    <chr>                <chr>          <chr> <chr> <int> <dbl> <dbl> <int> <int>
#>  1 Anthony Davis        2746           LAL   PF,C      1   2.5   1.6     1     7
#>  2 James Harden         2332           BKN   PG,SG     2   3.1   1.7     1     6
#>  3 Luka Doncic          3469           DAL   PG        3   3.7   3.9     1    15
#>  4 Karl-Anthony Towns   3012           MIN   C         4   4.3   1.3     2     6
#>  5 Giannis Antetokounm… 2803           MIL   SF,PF     5   4.4   2.2     1    10
#>  6 Nikola Jokic         2918           DEN   PF,C      6   5.7   1.9     2     9
#>  7 Stephen Curry        2135           GSW   PG,SG     7   6.8   2       3    10
#>  8 Damian Lillard       2761           POR   PG        8   7.8   1.6     5    11
#>  9 Trae Young           3473           ATL   PG        9   9.9   4.3     5    26
#> 10 Jayson Tatum         3316           BOS   SF,PF    10  10.6   2.1     8    16
#> # … with 315 more rows
fp_rankings(page = "ros-lw", sport = "nhl")

#> # A tibble: 110 x 8
#>    player_name       player_id team  pos     ecr    sd  best worst
#>    <chr>             <chr>     <chr> <chr> <dbl> <dbl> <int> <int>
#>  1 Gabriel Landeskog 15290     COL   C,LW    5.5   4.5     1    10
#>  2 Kyle Connor       16676     WPG   LW,F    8     6       2    14
#>  3 Alex DeBrincat    17209     CHI   LW,RW  10     3       7    13
#>  4 Andrei Svechnikov 18173     CAR   LW,RW  10.5   2.5     8    13
#>  5 Evander Kane      15477     SJ    LW,F   15.5  12.5     3    28
#>  6 Jake Guentzel     17322     PIT   LW,RW  21.5  12.5     9    34
#>  7 Leon Draisaitl    16588     EDM   C,LW    1     0       1     1
#>  8 Brad Marchand     15562     BOS   LW,F   42.5  40.5     2    83
#>  9 Artemi Panarin    16687     NYR   LW,F   62.5  59.5     3   122
#> 10 Alex Ovechkin     16003     WSH   LW,F   50    46       4    96
#> # … with 100 more rows
…
